{
    "KPackageStructure": "KWin/Aurorae",
    "KPlugin": {
        "Authors": [
            {
                "Email": "demitriusbelai@gmail.com",
                "Name": "Demitrius Belai",
                "Name[az]": "Demitrius Belai",
                "Name[ca]": "Demitrius Belai",
                "Name[cs]": "Demitrius Belai",
                "Name[en_GB]": "Demitrius Belai",
                "Name[es]": "Demitrius Belai",
                "Name[eu]": "Demitrius Belai",
                "Name[fr]": "Demitrius Belai",
                "Name[it]": "Demitrius Belai",
                "Name[ko]": "Demitrius Belai",
                "Name[nl]": "Demitrius Belai",
                "Name[pl]": "Demitrius Belai",
                "Name[sk]": "Demitrius Belai",
                "Name[sl]": "Demitrius Belai",
                "Name[sv]": "Demitrius Belai",
                "Name[uk]": "Demitrius Belai",
                "Name[vi]": "Demitrius Belai",
                "Name[x-test]": "xxDemitrius Belaixx",
                "Name[zh_CN]": "Demitrius Belai"
            }
        ],
        "Name": "KWin Aurorae",
        "Name[az]": "KWin Aurorae",
        "Name[ca]": "Aurorae del KWin",
        "Name[cs]": "KWin Aurorae",
        "Name[en_GB]": "KWin Aurorae",
        "Name[es]": "KWin Aurorae",
        "Name[eu]": "KWin Aurorae",
        "Name[fr]": "KWin Aurorae",
        "Name[it]": "KWin Aurorae",
        "Name[ko]": "KWin Aurorae",
        "Name[nl]": "KWin Aurorae",
        "Name[pl]": "KWin Aurorae",
        "Name[sk]": "KWin Aurorae",
        "Name[sl]": "KWin Aurorae",
        "Name[sv]": "KWin Aurorae",
        "Name[uk]": "KWin Aurorae",
        "Name[vi]": "Aurorae của KWin",
        "Name[x-test]": "xxKWin Auroraexx",
        "Name[zh_CN]": "KWin Aurorae 极光",
        "Version": "1"
    }
}
